\BOOKMARK [1][-]{section.1}{Sorting Algorithms}{}% 1
\BOOKMARK [1][-]{section.2}{What happens inside each sorting algorithm?}{}% 2
\BOOKMARK [1][-]{section.3}{Pseudo Code and Python Implemetation}{}% 3
\BOOKMARK [2][-]{subsection.3.1}{Peliminary work}{section.3}% 4
\BOOKMARK [2][-]{subsection.3.2}{Insertion Sort}{section.3}% 5
\BOOKMARK [3][-]{subsubsection.3.2.1}{Pseudo code}{subsection.3.2}% 6
\BOOKMARK [3][-]{subsubsection.3.2.2}{Python implementation}{subsection.3.2}% 7
\BOOKMARK [3][-]{subsubsection.3.2.3}{Test for Correctness}{subsection.3.2}% 8
\BOOKMARK [2][-]{subsection.3.3}{Merge Sort}{section.3}% 9
\BOOKMARK [3][-]{subsubsection.3.3.1}{Pseudo code}{subsection.3.3}% 10
\BOOKMARK [3][-]{subsubsection.3.3.2}{Python Implementation}{subsection.3.3}% 11
\BOOKMARK [3][-]{subsubsection.3.3.3}{Test for Correctness}{subsection.3.3}% 12
\BOOKMARK [3][-]{subsubsection.3.3.4}{Python Iterative Implementation}{subsection.3.3}% 13
\BOOKMARK [2][-]{subsection.3.4}{Quick Sort}{section.3}% 14
\BOOKMARK [3][-]{subsubsection.3.4.1}{Pseudo code}{subsection.3.4}% 15
\BOOKMARK [3][-]{subsubsection.3.4.2}{Python implementation}{subsection.3.4}% 16
\BOOKMARK [3][-]{subsubsection.3.4.3}{Test for Correctness}{subsection.3.4}% 17
\BOOKMARK [3][-]{subsubsection.3.4.4}{Python Iterative Implementation}{subsection.3.4}% 18
\BOOKMARK [2][-]{subsection.3.5}{Heap sort}{section.3}% 19
\BOOKMARK [3][-]{subsubsection.3.5.1}{Pseudo code}{subsection.3.5}% 20
\BOOKMARK [3][-]{subsubsection.3.5.2}{Python implementation}{subsection.3.5}% 21
\BOOKMARK [3][-]{subsubsection.3.5.3}{Test for Correctness}{subsection.3.5}% 22
\BOOKMARK [3][-]{subsubsection.3.5.4}{Python Iterative Implementation}{subsection.3.5}% 23
\BOOKMARK [1][-]{section.4}{Benchmarking}{}% 24
\BOOKMARK [2][-]{subsection.4.1}{Generating test data}{section.4}% 25
\BOOKMARK [2][-]{subsection.4.2}{Testing Environment}{section.4}% 26
\BOOKMARK [2][-]{subsection.4.3}{Perform benchmarking}{section.4}% 27
\BOOKMARK [1][-]{section.5}{Performance}{}% 28
\BOOKMARK [2][-]{subsection.5.1}{Actual Performance Result vs Expected Result}{section.5}% 29
\BOOKMARK [3][-]{subsubsection.5.1.1}{Insertion Sort}{subsection.5.1}% 30
\BOOKMARK [3][-]{subsubsection.5.1.2}{Merge Sort}{subsection.5.1}% 31
\BOOKMARK [3][-]{subsubsection.5.1.3}{Quick Sort}{subsection.5.1}% 32
\BOOKMARK [3][-]{subsubsection.5.1.4}{Heap Sort}{subsection.5.1}% 33
\BOOKMARK [3][-]{subsubsection.5.1.5}{Actual Result matches Expected Result}{subsection.5.1}% 34
\BOOKMARK [2][-]{subsection.5.2}{Performance comparison between sorting algorithms}{section.5}% 35
